1420073468.0561410.ece4a82d0d894ec3b90b71420ff629c5
1420073468.14f58d2.bd9b58380a36417ea7c5706438c4a0eb
1420073468.534c7e0.01365671ed79457fa2bec92016fb9918
1420073468.fb22367.24c76d26b3fe43ab9155a8e0b8400f57
1420073468.8f876c4.d71c3b5a033f4f49913456b4eb107357

1460331305.aecb155.8577b731845e48e9bb6e89e7984c347d
1460331305.03a4e27.c600ad9fbd7d4028a16017177c65743e
1460331305.2e2cd8c.3116f583d8f64490ad65ec21e6b02200
1460331305.4be9ecc.ceedd63db71447c3801ae21a0fdc09bb
1460331305.4156624.54b7cc6b051c4a4995c25b8c84d11938

1460351105.b3e2d8d.dd21445e98164527ac956e685ff01b05
1460351105.cdfad4a.4c792f3305884a68a370aae66f54eb6
1460351105.071337d.4eaab44700ca4810ae3b7cf58dee8ee1
1460351105.7ddc91c.5d5a1c04e19340bd971506b75a402b24
1460351105.48a4eb6.c23cd90084344ed5a1b5ada9adf0d2ef

1460360912.e6728e3.0512d8b98cbf43b0af1767af93de0565
1460360912.d97dcd1.fad45e5afa7147239cd89bed2e1f8f1b
1460360912.39ca7a7.7b0a4594bef24e2393de96b6321a96a1
1460360912.44d41b2.72a9afa3c74f4dd9bb28c3fe5000d103
1460360912.7d04c74.52669d5c38164354bf6e213ebf525144

1460375832.374c750.44f2079ae6b24dad935d0a2df717f8dd
1460375832.f6adbd6.0ab3c0ef04b845f8b6660744d073bd22
1460375832.37c0420.231139695bdb4097a135d981af34bf2c
1460375832.36486ee.40a20551152d4c398f04ae4188d336e1
1460375832.9851293.68207d5de0724669933b7e0a2ec0b804